{
    "lobbyPointers": [
        {            
            "class":"p1",
            "title":"helpdesk", 
            "top":82, 
            "left": 19.5, 
            "animation_url":null, 
            "path":"helpdesk",
            "is_enabled":true,
            "text":"go to Helpdesk"
        },
        {
            "class":"p2", 
            "title":"agenda", 
            "top": 69.5, 
            "left": 39, 
            "animation_url":null, 
            "path":null,
            "is_enabled":true,
            "text":"click here to see Agenda" 
        },
        {
            "class":"p3", 
            "title":"Speaker Profile", 
            "top": 69.5, 
            "left": 61, 
            "animation_url":null, 
            "path":null,
            "is_enabled":true,
            "text":"click here to see Feedback"  
        },
        {
            "class":"p4", 
            "title":"auditorium", 
            "top": 60.5, 
            "left": 49, 
            "animation_url":"https://d3ep09c8x21fmh.cloudfront.net/oppi/auditorium.mp4", 
            "path":"auditorium/stage/205086",
            "is_enabled":true,
            "text":"click here to go Auditorium", 
            "leader_board": 1
        },
        {
            "class":"p5", 
            "title":"exhibition hall", 
            "top": 51, 
            "left": 36, 
            "animation_url":"https://d3ep09c8x21fmh.cloudfront.net/honeywell/exhibition.mp4", 
            "path":"exhibition/home/1",
            "is_enabled":false,
            "text":"click here to go Exhibition" ,
            "leader_board": 1
        },
        {
            "class":"p6", 
            "title":"photobooth", 
            "top": 51, 
            "left": 61, 
            "animation_url":"https://d3ep09c8x21fmh.cloudfront.net/honeywell/photobooth.mp4", 
            "path":"photobooth",
            "is_enabled":false,
            "text":"click here to go Photobooth",
            "leader_board": 1
        },
        {
            "class":"p7", 
            "title":"game zone", 
            "top": 38, 
            "left": 72, 
            "animation_url":"https://d3ep09c8x21fmh.cloudfront.net/honeywell/game.mp4", 
            "path":"gamezone",
            "is_enabled":false,
            "text":"click here to go Game zone",
            "leader_board": 1
        },
        {
            "class":"p8", 
            "title":"video", 
            "top": 55.8, 
            "left": 31.3, 
            "animation_url":null, 
            "path": null,
            "is_enabled":true,
            "text":"click here to see video" ,
            "leader_board": 0
        }
    
    ],
    "helpdeskPointers": [
        {
            "class":"p1",
            "title":"agenda", 
            "top": 45, 
            "left": 20
        },
        {
            "class":"p2",
            "title":"helpdesk", 
            "top": 64, 
            "left": 48
        },
        {
            "class":"p3",
            "title":"feedback", 
            "top": 45, 
            "left": 76
        }
    ],
    "networkinLoungePointers": [
        {
            "class":"p1",
            "title":"agenda", 
            "top": 10, 
            "right": 18,
            "path":null
        },
        {
            "class":"p2",
            "title":"games", 
            "top": 17, 
            "right": 18,
            "path":"gamezone"
        },
        {
            "class":"p3",
            "title":"photobooth", 
            "top": 24, 
            "right": 18,
            "path":"photobooth"
        },
        {
            "class":"p4",
            "title":"let's chat", 
            "top": 33, 
            "right": 18,
            "path":null
        }
    ],
     "bgImages": {
        "signup":"assets/event/ipa/background.jpg", 
        "lobby":"assets/event/lobby.jpg",
        "gamezone":"assets/event/gamezone.jpg",
        "lounge":"assets/event/networking_lounge.jpg",
        "photobooth":"assets/event/photobooth_files/photobooth.jpg"
    }, 
    "menuItems":[
        {"is_enabled":true, "icon":"assets/icons/01.png", "leader_board": 1, "is_modal":false, "path":"lobby", "name":"lobby"},
        {"is_enabled":false, "icon":"assets/icons/02.png", "leader_board": 1, "is_modal":false, "path":"auditorium", "name":"auditorium"},
        {"is_enabled":false, "icon":"assets/icons/02.png", "leader_board": 1, "is_modal":false, "path":"auditorium/full/205002", "name":"full stage"},
        {"is_enabled":true, "icon":"assets/icons/02.png", "leader_board": 1, "is_modal":false, "path":"auditorium/stage/205086", "name":"auditorium"},
        {"is_enabled":false, "icon":"assets/icons/03.png", "leader_board": 1, "is_modal":false, "path":"exhibition/home/1", "name":"exhibition1"},
        {"is_enabled":false, "icon":"assets/icons/03.png", "leader_board": 1, "is_modal":false, "path":"exhibition/home/2", "name":"exhibition2"},
        {"is_enabled":false, "icon":"assets/icons/04.png", "leader_board": 1, "is_modal":false, "path":"lounge", "name":"lounge"},
        {"is_enabled":false, "icon":"assets/icons/05.png", "leader_board": 1, "is_modal":false, "path":"gamezone", "name":"game zone"},
        {"is_enabled":false, "icon":"assets/icons/06.png", "leader_board": 1, "is_modal":false, "path":"photobooth", "name":"photobooth"},
        {"is_enabled":false, "icon":"assets/icons/07.png", "leader_board": 1, "is_modal":false, "path":"signaturewall", "name":"signature wall"},
        {"is_enabled":false, "icon":"assets/event/Briefcase.png", "is_modal":true, "path":null, "data_target":"briefcase", "name":"briefcase"},
        {"is_enabled":false, "icon":"assets/icons/08.png", "is_modal":true, "path":null, "data_target":"leaderboard", "name":"leaderboard"}
    ],
    "auditorium":[
        {"id":"205002", "path":"full"},
        {"id":"205086", "path":"stage"},
        {"id":"205069", "path":"stage"}
    ],
    "leaderboardCriteria":[
        {"criteria":"platform login", "points": "50"},
        {"criteria":"platform lobby", "points": "50"},
        {"criteria":"platform auditorium", "points": "50"},
        {"criteria":"platform photobooth", "points": "50"},
        {"criteria":"platform chat", "points": "50"},
        {"criteria":"platform quiz", "points": "50"}
    ]
}